<svg width="16" height="16" viewBox="0 0 16 16" fill="none" xmlns="http://www.w3.org/2000/svg">
<path fill-rule="evenodd" clip-rule="evenodd" d="M15.6875 8L0.6875 16L3.03125 8L0.6875 0L15.6875 8Z" fill="url(#paint0_linear_102_1146)"/>
<mask id="mask0_102_1146" style="mask-type:alpha" maskUnits="userSpaceOnUse" x="0" y="0" width="16" height="16">
<path fill-rule="evenodd" clip-rule="evenodd" d="M15.6875 8L0.6875 16L3.03125 8L0.6875 0L15.6875 8Z" fill="white"/>
</mask>
<g mask="url(#mask0_102_1146)">
<rect x="18.5" y="8" width="10" height="17.8125" transform="rotate(90 18.5 8)" fill="url(#paint1_linear_102_1146)"/>
</g>
<defs>
<linearGradient id="paint0_linear_102_1146" x1="15.6875" y1="0" x2="0.6875" y2="0" gradientUnits="userSpaceOnUse">
<stop stop-color="#A5B4FC"/>
<stop offset="1" stop-color="#818CF8"/>
</linearGradient>
<linearGradient id="paint1_linear_102_1146" x1="19.7269" y1="12.3707" x2="19.7269" y2="25.8125" gradientUnits="userSpaceOnUse">
<stop stop-color="#4338CA"/>
<stop offset="1" stop-color="#6366F1" stop-opacity="0.01"/>
</linearGradient>
</defs>
</svg>
